<svg xmlns="http://www.w3.org/2000/svg" width="30.938" height="30.875" viewBox="0 0 30.938 30.875">
  <defs>
    <style>
      .cls-1 {
        fill: #000002;
        stroke: #000204;
        stroke-width: 1px;
        fill-rule: evenodd;
      }
    </style>
  </defs>
  <path id="CloseB.svg" class="cls-1" d="M373.617,845.511l13,12.983a1.138,1.138,0,0,1,0,1.617,1.081,1.081,0,0,1-.393.258,1.242,1.242,0,0,1-.438.079,1.181,1.181,0,0,1-.415-0.079,1.076,1.076,0,0,1-.394-0.258L372,847.128l-12.982,12.983a1.076,1.076,0,0,1-.394.258,1.181,1.181,0,0,1-.415.079,1.242,1.242,0,0,1-.438-0.079,1.081,1.081,0,0,1-.393-0.258,1.138,1.138,0,0,1,0-1.617l13-12.983-13-13a1.138,1.138,0,0,1,0-1.617,1.166,1.166,0,0,1,1.64,0L372,843.872l12.982-12.983a1.166,1.166,0,0,1,1.64,0,1.138,1.138,0,0,1,0,1.617l-13,13h0Z" transform="translate(-356.531 -830.063)"/>
</svg>
