<svg xmlns="http://www.w3.org/2000/svg" width="91.031" height="117" viewBox="0 0 91.031 117">
  <defs>
    <style>
      .cls-1 {
        fill: #fff;
        fill-rule: evenodd;
      }
    </style>
  </defs>
  <path id="pinterest.svg" class="cls-1" d="M201.243,755.057s2.233,5.178,9.955,7.485,20.562,1.386,31.356-10.254,13.859-33.265,9.679-46.293-16.52-23-31.633-26.151c-15.537-3.234-42.153,2.587-52.475,22.454-10.2,19.619-2.283,33.385-.841,35.945,3.07,5.452,8.653,7.947,9.585,8.409s2.416,0.829,3.159-1.3,1.491-5.174,1.677-5.82,0.927-1.387-.649-3.326-6.237-7.763-4.468-18.942a31.856,31.856,0,0,1,23.169-25.5c12.838-3.329,23.723.184,29.68,5.359s9.119,11.644,7.91,25.41-6.609,22.269-13.115,27.075-13.5,1.572-15.825-.461c-2.01-1.758-3.906-6.1-3.161-9.148s4.464-14.969,5.489-19.311,1.111-7.394-.375-10.626-4.926-5.269-9.491-4.807-9.305,5.823-10.606,10.351-1.205,12.565,1.206,17.464c-1.206,5.91-7.252,30.952-8.181,34.834a54.348,54.348,0,0,0-1.583,9.058c-0.092,2.032-.12,7.081.072,9.805s0.776,7.669.853,8.475a0.922,0.922,0,0,0,1.66.385,145.213,145.213,0,0,0,8.843-13.732,37.887,37.887,0,0,0,4.052-10.93C198.189,767.133,201.243,755.057,201.243,755.057Z" transform="translate(-162.969 -679)"/>
</svg>
